<?xml version="1.0" encoding="UTF-8" ?>
<testsuite failures="0" time="0.113" errors="0" skipped="0" tests="15" name="org.osmdroid.util.GeoPointTest">
  <properties>
    <property name="java.runtime.name" value="Java(TM) SE Runtime Environment"/>
    <property name="sun.boot.library.path" value="C:\Program Files\Java\jdk1.7.0_51\jre\bin"/>
    <property name="java.vm.version" value="24.51-b03"/>
    <property name="java.vm.vendor" value="Oracle Corporation"/>
    <property name="java.vendor.url" value="http://java.oracle.com/"/>
    <property name="path.separator" value=";"/>
    <property name="guice.disable.misplaced.annotation.check" value="true"/>
    <property name="java.vm.name" value="Java HotSpot(TM) 64-Bit Server VM"/>
    <property name="file.encoding.pkg" value="sun.io"/>
    <property name="user.script" value=""/>
    <property name="user.country" value="US"/>
    <property name="sun.java.launcher" value="SUN_STANDARD"/>
    <property name="sun.os.patch.level" value=""/>
    <property name="java.vm.specification.name" value="Java Virtual Machine Specification"/>
    <property name="user.dir" value="C:\Users\Dimy93\Documents\Cube Official Workspace\osmdroid-android"/>
    <property name="java.runtime.version" value="1.7.0_51-b13"/>
    <property name="java.awt.graphicsenv" value="sun.awt.Win32GraphicsEnvironment"/>
    <property name="java.endorsed.dirs" value="C:\Program Files\Java\jdk1.7.0_51\jre\lib\endorsed"/>
    <property name="os.arch" value="amd64"/>
    <property name="java.io.tmpdir" value="C:\Users\Dimy93\AppData\Local\Temp\"/>
    <property name="line.separator" value="
"/>
    <property name="java.vm.specification.vendor" value="Oracle Corporation"/>
    <property name="user.variant" value=""/>
    <property name="os.name" value="Windows 8"/>
    <property name="classworlds.conf" value="C:\Users\Dimy93\Documents\Cube Official\.metadata\.plugins\org.eclipse.m2e.launching\launches\m2conf3718544649509817439.tmp"/>
    <property name="sun.jnu.encoding" value="Cp1251"/>
    <property name="java.library.path" value="C:\Program Files\Java\jdk1.7.0_51\bin;C:\WINDOWS\Sun\Java\bin;C:\WINDOWS\system32;C:\WINDOWS;C:\Program Files (x86)\NVIDIA Corporation\PhysX\Common;C:\Program Files (x86)\Haskell\bin;C:\Program Files (x86)\Haskell Platform\2013.2.0.0\lib\extralibs\bin;C:\Program Files (x86)\Haskell Platform\2013.2.0.0\bin;C:\Program Files (x86)\Intel\iCLS Client\;C:\Program Files\Intel\iCLS Client\;C:\WINDOWS\system32;C:\WINDOWS;C:\WINDOWS\System32\Wbem;C:\WINDOWS\System32\WindowsPowerShell\v1.0\;C:\Program Files (x86)\Intel\OpenCL SDK\3.0\bin\x86;C:\Program Files (x86)\Intel\OpenCL SDK\3.0\bin\x64;C:\Program Files\Intel\Intel(R) Management Engine Components\DAL;C:\Program Files\Intel\Intel(R) Management Engine Components\IPT;C:\Program Files (x86)\Intel\Intel(R) Management Engine Components\DAL;C:\Program Files (x86)\Intel\Intel(R) Management Engine Components\IPT;C:\Program Files\Lenovo\Bluetooth Software\;C:\Program Files\Lenovo\Bluetooth Software\syswow64;C:\Program Files\Microsoft\Web Platform Installer\;C:\Program Files (x86)\Microsoft ASP.NET\ASP.NET Web Pages\v1.0\;C:\Program Files (x86)\Windows Kits\8.0\Windows Performance Toolkit\;C:\Program Files\Microsoft SQL Server\110\Tools\Binn\;C:\Program Files (x86)\Haskell Platform\2013.2.0.0\mingw\bin;C:\Program Files\Java\jdk1.7.0_51\bin;C:\Mitko\Install\adt-bundle-windows-x86_64\sdk\platform-tools;C:\Program Files\TortoiseHg\;C:\Mitko\Install\;C:\Program Files\Oracle\VirtualBox;C:\Users\Dimy93\AppData\Roaming\cabal\bin;."/>
    <property name="java.specification.name" value="Java Platform API Specification"/>
    <property name="java.class.version" value="51.0"/>
    <property name="sun.management.compiler" value="HotSpot 64-Bit Tiered Compilers"/>
    <property name="os.version" value="6.2"/>
    <property name="user.home" value="C:\Users\Dimy93"/>
    <property name="user.timezone" value="Europe/Minsk"/>
    <property name="java.awt.printerjob" value="sun.awt.windows.WPrinterJob"/>
    <property name="java.specification.version" value="1.7"/>
    <property name="file.encoding" value="Cp1251"/>
    <property name="user.name" value="Dimy93"/>
    <property name="java.class.path" value="/C:/Mitko/Install/adt-bundle-windows-x86_64/eclipse_old/configuration/org.eclipse.osgi/bundles/807/1/.cp/jars/plexus-classworlds-2.4.jar"/>
    <property name="java.vm.specification.version" value="1.7"/>
    <property name="sun.arch.data.model" value="64"/>
    <property name="java.home" value="C:\Program Files\Java\jdk1.7.0_51\jre"/>
    <property name="sun.java.command" value="org.codehaus.plexus.classworlds.launcher.Launcher -B install"/>
    <property name="java.specification.vendor" value="Oracle Corporation"/>
    <property name="user.language" value="en"/>
    <property name="awt.toolkit" value="sun.awt.windows.WToolkit"/>
    <property name="java.vm.info" value="mixed mode"/>
    <property name="java.version" value="1.7.0_51"/>
    <property name="java.ext.dirs" value="C:\Program Files\Java\jdk1.7.0_51\jre\lib\ext;C:\WINDOWS\Sun\Java\lib\ext"/>
    <property name="sun.boot.class.path" value="C:\Program Files\Java\jdk1.7.0_51\jre\lib\resources.jar;C:\Program Files\Java\jdk1.7.0_51\jre\lib\rt.jar;C:\Program Files\Java\jdk1.7.0_51\jre\lib\sunrsasign.jar;C:\Program Files\Java\jdk1.7.0_51\jre\lib\jsse.jar;C:\Program Files\Java\jdk1.7.0_51\jre\lib\jce.jar;C:\Program Files\Java\jdk1.7.0_51\jre\lib\charsets.jar;C:\Program Files\Java\jdk1.7.0_51\jre\lib\jfr.jar;C:\Program Files\Java\jdk1.7.0_51\jre\classes"/>
    <property name="java.vendor" value="Oracle Corporation"/>
    <property name="maven.home" value="C:\Users\Dimy93\Documents\Cube Official Workspace\osmdroid-android\EMBEDDED"/>
    <property name="file.separator" value="\"/>
    <property name="java.vendor.url.bug" value="http://bugreport.sun.com/bugreport/"/>
    <property name="maven.bootclasspath" value="/C:/Mitko/Install/adt-bundle-windows-x86_64/eclipse_old/configuration/org.eclipse.osgi/bundles/807/1/.cp/jars/plexus-classworlds-2.4.jar"/>
    <property name="sun.cpu.endian" value="little"/>
    <property name="sun.io.unicode.encoding" value="UnicodeLittle"/>
    <property name="sun.desktop" value="windows"/>
    <property name="sun.cpu.isalist" value="amd64"/>
  </properties>
  <testcase time="0.089" classname="org.osmdroid.util.GeoPointTest" name="test_destinationPoint_north_west_here"/>
  <testcase time="0.001" classname="org.osmdroid.util.GeoPointTest" name="test_toFromInvertedDoubleString_withoutAltitude"/>
  <testcase time="0" classname="org.osmdroid.util.GeoPointTest" name="test_bearingTo_south"/>
  <testcase time="0" classname="org.osmdroid.util.GeoPointTest" name="test_bearingTo_north"/>
  <testcase time="0" classname="org.osmdroid.util.GeoPointTest" name="test_bearingTo_west"/>
  <testcase time="0" classname="org.osmdroid.util.GeoPointTest" name="test_distanceTo_one"/>
  <testcase time="0" classname="org.osmdroid.util.GeoPointTest" name="test_distanceTo_zero"/>
  <testcase time="0" classname="org.osmdroid.util.GeoPointTest" name="test_bearingTo_north_west"/>
  <testcase time="0" classname="org.osmdroid.util.GeoPointTest" name="test_bearingTo_east"/>
  <testcase time="0" classname="org.osmdroid.util.GeoPointTest" name="test_distanceTo_one_degree"/>
  <testcase time="0" classname="org.osmdroid.util.GeoPointTest" name="test_toFromString_withAltitude"/>
  <testcase time="0" classname="org.osmdroid.util.GeoPointTest" name="test_toFromString_withoutAltitude"/>
  <testcase time="0" classname="org.osmdroid.util.GeoPointTest" name="test_toFromDoubleString_withoutAltitude"/>
  <testcase time="0" classname="org.osmdroid.util.GeoPointTest" name="test_toFromDoubleString_withAltitude"/>
  <testcase time="0" classname="org.osmdroid.util.GeoPointTest" name="test_toFromInvertedDoubleString_withAltitude"/>
</testsuite>